{
  "log": {
    "_recordingName": "Incident Teams/Get a list of all incident teams returns \"OK\" response",
    "creator": {
      "comment": "persister:fs",
      "name": "Polly.JS",
      "version": "5.1.0"
    },
    "entries": [
      {
        "_id": "5762cb85635e7d0d153edc1bf913bb43",
        "_order": 0,
        "cache": {},
        "request": {
          "bodySize": 118,
          "cookies": [],
          "headers": [
            {
              "_fromType": "array",
              "name": "accept",
              "value": "application/json"
            },
            {
              "_fromType": "array",
              "name": "content-type",
              "value": "application/json"
            }
          ],
          "headersSize": 558,
          "httpVersion": "HTTP/1.1",
          "method": "POST",
          "postData": {
            "mimeType": "application/json",
            "params": [],
            "text": "{\"data\":{\"attributes\":{\"name\":\"Test-Get_a_list_of_all_incident_teams_returns_OK_response-1652349099\"},\"type\":\"teams\"}}"
          },
          "queryString": [],
          "url": "https://api.datadoghq.com/api/v2/teams"
        },
        "response": {
          "bodySize": 998,
          "content": {
            "mimeType": "application/json",
            "size": 998,
            "text": "{\"included\":[{\"type\":\"users\",\"id\":\"3ad549bf-eba0-11e9-a77a-0705486660d0\",\"attributes\":{\"name\":null,\"handle\":\"frog@datadoghq.com\",\"created_at\":\"2019-10-02T08:15:39.795051+00:00\",\"modified_at\":\"2020-06-15T12:33:12.884459+00:00\",\"email\":\"frog@datadoghq.com\",\"icon\":\"https://secure.gravatar.com/avatar/28a16dfe36e73b60c1d55872cb0f1172?s=48&d=retro\",\"title\":null,\"verified\":true,\"service_account\":false,\"disabled\":false,\"allowed_login_methods\":[],\"status\":\"Active\"},\"relationships\":{\"org\":{\"data\":{\"type\":\"orgs\",\"id\":\"4dee724d-00cc-11ea-a77b-570c9d03c6c5\"}}}}],\"data\":{\"type\":\"teams\",\"id\":\"48fe29a2-88f2-5563-ac54-205e0ca2723a\",\"attributes\":{\"name\":\"Test-Get_a_list_of_all_incident_teams_returns_OK_response-1652349099\",\"created\":\"2022-05-12T09:51:39.732496+00:00\",\"modified\":\"2022-05-12T09:51:39.732496+00:00\"},\"relationships\":{\"last_modified_by\":{\"data\":{\"type\":\"users\",\"id\":\"3ad549bf-eba0-11e9-a77a-0705486660d0\"}},\"created_by\":{\"data\":{\"type\":\"users\",\"id\":\"3ad549bf-eba0-11e9-a77a-0705486660d0\"}}}}}"
          },
          "cookies": [],
          "headers": [
            {
              "name": "content-type",
              "value": "application/json"
            }
          ],
          "headersSize": 663,
          "httpVersion": "HTTP/1.1",
          "redirectURL": "",
          "status": 201,
          "statusText": "Created"
        },
        "startedDateTime": "2022-05-12T09:51:39.046Z",
        "time": 740
      },
      {
        "_id": "669574a9ba1306c07957a9a9017990bb",
        "_order": 0,
        "cache": {},
        "request": {
          "bodySize": 0,
          "cookies": [],
          "headers": [
            {
              "_fromType": "array",
              "name": "accept",
              "value": "application/json"
            }
          ],
          "headersSize": 579,
          "httpVersion": "HTTP/1.1",
          "method": "GET",
          "queryString": [
            {
              "name": "filter",
              "value": "Test-Get_a_list_of_all_incident_teams_returns_OK_response-1652349099"
            }
          ],
          "url": "https://api.datadoghq.com/api/v2/teams?filter=Test-Get_a_list_of_all_incident_teams_returns_OK_response-1652349099"
        },
        "response": {
          "bodySize": 544,
          "content": {
            "mimeType": "application/json",
            "size": 544,
            "text": "{\"meta\":{\"sort\":\"ASC\",\"pagination\":{\"total\":1705,\"size\":1,\"next_offset\":1,\"offset\":0},\"total\":1705},\"data\":[{\"type\":\"teams\",\"id\":\"48fe29a2-88f2-5563-ac54-205e0ca2723a\",\"attributes\":{\"name\":\"Test-Get_a_list_of_all_incident_teams_returns_OK_response-1652349099\",\"created\":\"2022-05-12T09:51:39.732496+00:00\",\"modified\":\"2022-05-12T09:51:39.732496+00:00\"},\"relationships\":{\"last_modified_by\":{\"data\":{\"type\":\"users\",\"id\":\"3ad549bf-eba0-11e9-a77a-0705486660d0\"}},\"created_by\":{\"data\":{\"type\":\"users\",\"id\":\"3ad549bf-eba0-11e9-a77a-0705486660d0\"}}}}]}"
          },
          "cookies": [],
          "headers": [
            {
              "name": "content-type",
              "value": "application/json"
            }
          ],
          "headersSize": 664,
          "httpVersion": "HTTP/1.1",
          "redirectURL": "",
          "status": 200,
          "statusText": "OK"
        },
        "startedDateTime": "2022-05-12T09:51:39.791Z",
        "time": 637
      },
      {
        "_id": "0495f93bdaab5f59b3034b2b9bffd36b",
        "_order": 0,
        "cache": {},
        "request": {
          "bodySize": 0,
          "cookies": [],
          "headers": [
            {
              "_fromType": "array",
              "name": "accept",
              "value": "*/*"
            }
          ],
          "headersSize": 531,
          "httpVersion": "HTTP/1.1",
          "method": "DELETE",
          "queryString": [],
          "url": "https://api.datadoghq.com/api/v2/teams/48fe29a2-88f2-5563-ac54-205e0ca2723a"
        },
        "response": {
          "bodySize": 0,
          "content": {
            "mimeType": "text/plain",
            "size": 0
          },
          "cookies": [],
          "headers": [],
          "headersSize": 610,
          "httpVersion": "HTTP/1.1",
          "redirectURL": "",
          "status": 204,
          "statusText": "No Content"
        },
        "startedDateTime": "2022-05-12T09:51:40.433Z",
        "time": 432
      }
    ],
    "pages": [],
    "version": "1.2"
  }
}
